Predicting Recidivism in Boward County, FL
…
The data was filtered to include rows of those in two years times were either recidivated or outside of the correctional facility.

DATA CLEANING FOR GENERAL DATASET

#df cleaning for all criminals
subset.score.df <- dplyr::select(compas.score.two.year, sex, dob, age, age_cat, race, c_offense_date, c_arrest_date, juv_fel_count, days_b_screening_arrest, decile_score, juv_misd_count, juv_other_count, priors_count, c_jail_in, c_jail_out,c_charge_degree, is_recid, score_text)

subset.score.df %>%
  filter(days_b_screening_arrest <= 30) %>%
  filter(days_b_screening_arrest >= -30) %>% 
  filter(c_charge_degree != "O") %>%
  filter(score_text != 'N/A')

## # A tibble: 6,172 x 18
##    sex   dob          age age_cat race  c_offense_date c_arrest_date
##    <chr> <date>     <dbl> <chr>   <chr> <date>         <date>       
##  1 Male  1947-04-18    69 Greate~ Other 2013-08-13     NA           
##  2 Male  1982-01-22    34 25 - 45 Afri~ 2013-01-26     NA           
##  3 Male  1991-05-14    24 Less t~ Afri~ 2013-04-13     NA           
##  4 Male  1971-08-22    44 25 - 45 Other 2013-11-30     NA           
##  5 Male  1974-07-23    41 25 - 45 Cauc~ 2014-02-18     NA           
##  6 Male  1973-02-25    43 25 - 45 Other NA             2013-08-29   
##  7 Fema~ 1976-06-03    39 25 - 45 Cauc~ 2014-03-15     NA           
##  8 Male  1988-06-01    27 25 - 45 Cauc~ 2013-11-25     NA           
##  9 Male  1992-08-18    23 Less t~ Afri~ 2013-10-03     NA           
## 10 Fema~ 1978-08-22    37 25 - 45 Cauc~ 2013-01-01     NA           
## # ... with 6,162 more rows, and 11 more variables: juv_fel_count <dbl>,
## #   days_b_screening_arrest <dbl>, decile_score <dbl>,
## #   juv_misd_count <dbl>, juv_other_count <dbl>, priors_count <dbl>,
## #   c_jail_in <dttm>, c_jail_out <dttm>, c_charge_degree <chr>,
## #   is_recid <dbl>, score_text <chr>
…
raw.score.df <- subset.score.df[,-c(2,3,6,7,9,10,14,15,18,20)]

DATA CLEANING FOR VIOLENT DATASET

#df cleaning for all criminals
violent.subset.score.df <- dplyr::select(compas.score.violent, sex, dob, age, age_cat, race, c_offense_date, c_arrest_date, juv_fel_count, days_b_screening_arrest, decile_score, juv_misd_count, juv_other_count, priors_count, c_jail_in, c_jail_out,c_charge_degree, is_recid, is_violent_recid, score_text)

violent.subset.score.df %>%
  filter(days_b_screening_arrest <= 30) %>%
  filter(days_b_screening_arrest >= -30) %>% 
  filter(c_charge_degree != "O") %>%
  filter(score_text != 'N/A')

## # A tibble: 4,015 x 19
##    sex   dob          age age_cat race  c_offense_date c_arrest_date
##    <chr> <date>     <dbl> <chr>   <chr> <date>         <date>       
##  1 Male  1947-04-18    69 Greate~ Other 2013-08-13     NA           
##  2 Male  1982-01-22    34 25 - 45 Afri~ 2013-01-26     NA           
##  3 Male  1971-08-22    44 25 - 45 Other 2013-11-30     NA           
##  4 Male  1973-02-25    43 25 - 45 Other NA             2013-08-29   
##  5 Fema~ 1976-06-03    39 25 - 45 Cauc~ 2014-03-15     NA           
##  6 Male  1988-06-01    27 25 - 45 Cauc~ 2013-11-25     NA           
##  7 Fema~ 1978-08-22    37 25 - 45 Cauc~ 2013-01-01     NA           
##  8 Male  1974-12-02    41 25 - 45 Afri~ 2013-10-08     NA           
##  9 Male  1979-01-25    37 25 - 45 Hisp~ 2014-03-24     NA           
## 10 Male  1990-06-22    25 25 - 45 Afri~ 2013-12-21     NA           
## # ... with 4,005 more rows, and 12 more variables: juv_fel_count <dbl>,
## #   days_b_screening_arrest <dbl>, decile_score <dbl>,
## #   juv_misd_count <dbl>, juv_other_count <dbl>, priors_count <dbl>,
## #   c_jail_in <dttm>, c_jail_out <dttm>, c_charge_degree <chr>,
## #   is_recid <dbl>, is_violent_recid <dbl>, score_text <chr>
…
